com/ceedcv/pacoaldariasprg2021a/Pregunta5$3.class
com/ceedcv/pacoaldariasprg2021a/Almacen.class
com/ceedcv/pacoaldariasprg2021a/Mysql.class
com/ceedcv/pacoaldariasprg2021a/Pregunta5$2.class
com/ceedcv/pacoaldariasprg2021a/Persona.class
com/ceedcv/pacoaldariasprg2021a/Pregunta4.class
com/ceedcv/pacoaldariasprg2021a/Pregunta5$1.class
com/ceedcv/pacoaldariasprg2021a/Pregunta4$2.class
com/ceedcv/pacoaldariasprg2021a/Pregunta3.class
com/ceedcv/pacoaldariasprg2021a/Pregunta4$1.class
com/ceedcv/pacoaldariasprg2021a/Pregunta2.class
com/ceedcv/pacoaldariasprg2021a/Alumno.class
com/ceedcv/pacoaldariasprg2021a/Miexcepcion.class
com/ceedcv/pacoaldariasprg2021a/Pregunta5.class
com/ceedcv/pacoaldariasprg2021a/Fichero.class
